2019-09-04-Toronto_MCI.utf8.md
…
What were the different assault types? Which one is the worst?

# Grouping only those observations that have "Assault" in MCI column
assault_by_offence <- toronto[toronto$MCI == 'Assault', ] %>% group_by(offence) %>% summarise(n=n())
assault_by_offence <- assault_by_offence[order(assault_by_offence$n, decreasing = TRUE), ]
assault_by_offence

## # A tibble: 21 x 2
##    offence                            n
##    <chr>                          <int>
##  1 Assault                        53561
##  2 Assault With Weapon            11417
##  3 Assault Bodily Harm             2972
##  4 Assault Peace Officer           2144
##  5 Assault - Resist/ Prevent Seiz  1478
##  6 Aggravated Assault              1138
##  7 Discharge Firearm With Intent    713
##  8 Discharge Firearm - Recklessly   545
##  9 Pointing A Firearm               456
## 10 Administering Noxious Thing      153
## # … with 11 more rows
…
The top offences

What are other offences, in addition to assault?

crime_by_offence <- toronto %>% group_by(offence) %>%  summarise(n = n())
crime_by_offence <- crime_by_offence[order(crime_by_offence$n, decreasing = TRUE), ]
crime_by_offence

## # A tibble: 49 x 2
##    offence                    n
##    <chr>                  <int>
##  1 Assault                53561
##  2 B&E                    28901
##  3 Theft Of Motor Vehicle 16505
##  4 Assault With Weapon    11417
##  5 Robbery - Mugging       4705
##  6 B&E W'Intent            4503
##  7 Assault Bodily Harm     2972
##  8 Theft Over              2939
##  9 Robbery - Other         2171
## 10 Assault Peace Officer   2144
## # … with 39 more rows
…
Neighbourhoods with the highest amount of crime

crime_by_location <- toronto %>% group_by(Neighbourhood) %>%  summarise(n=n())
crime_by_location <- crime_by_location[order(crime_by_location$n, decreasing = TRUE), ]
crime_by_location

## # A tibble: 141 x 2
##    Neighbourhood                              n
##    <chr>                                  <int>
##  1 Church-Yonge Corridor (75)              5335
##  2 Waterfront Communities-The Island (77)  4803
##  3 West Humber-Clairville (1)              3857
##  4 Moss Park (73)                          3152
##  5 Bay Street Corridor (76)                3036
##  6 Kensington-Chinatown (78)               2767
##  7 York University Heights (27)            2714
##  8 Woburn (137)                            2658
##  9 Downsview-Roding-CFB (26)               2536
## 10 Annex (95)                              2518
## # … with 131 more rows
…
